1615961926
s:6217:"<?xml version="1.0" encoding="utf-8" ?><rss version="2.0" xml:base="https://www.prestashop.com/en/blog/feed.xml" xmlns:dc="http://purl.org/dc/elements/1.1/" xmlns:atom="http://www.w3.org/2005/Atom" xmlns:og="http://ogp.me/ns#" xmlns:content="http://purl.org/rss/1.0/modules/content/" xmlns:foaf="http://xmlns.com/foaf/0.1/" xmlns:rdfs="http://www.w3.org/2000/01/rdf-schema#" xmlns:sioc="http://rdfs.org/sioc/ns#" xmlns:sioct="http://rdfs.org/sioc/types#" xmlns:skos="http://www.w3.org/2004/02/skos/core#" xmlns:xsd="http://www.w3.org/2001/XMLSchema#">
  <channel>
    <title>Blog Feed</title>
    <link>https://www.prestashop.com/en/blog/feed.xml</link>
    <description></description>
    <language>en</language>
     <atom:link href="https://www.prestashop.com/en/blog/feed.xml" rel="self" type="application/rss+xml" />
      <item>
    <title>PSD2 SCA is here. Is your shopping cart ready?</title>
    <link>https://www.prestashop.com/en/blog/psd2-sca-ready</link>
    <description>If you’re a merchant who’s acquired in the EEA and the UK, and if you’re an issuer of cards in this area, then PSD2 and SCA probably applies to you.</description>
     <pubDate>Thu, 11 Mar 2021 14:23:32 +0100</pubDate>
 <dc:creator>CardinalCommerce</dc:creator>
 <guid isPermaLink="false">https://www.prestashop.com/en/blog/psd2-sca-ready</guid>
  </item>
  <item>
    <title>Women in tech – Interview with our PrestaShop ambassadress Patricia Perochena</title>
    <link>https://www.prestashop.com/en/blog/women-tech-patricia-perochena</link>
    <description>It is a well-known fact that women are underrepresented in the technology sector. We would love to see that change.</description>
     <pubDate>Mon, 08 Mar 2021 17:45:25 +0100</pubDate>
 <dc:creator>Océane Juste</dc:creator>
 <guid isPermaLink="false">https://www.prestashop.com/en/blog/women-tech-patricia-perochena</guid>
  </item>
  <item>
    <title>E-commerce in 2021: The challenge of customer retention</title>
    <link>https://www.prestashop.com/en/blog/customer-retention-trends</link>
    <description>In light of the ongoing health crisis, a number of merchants have seen an increase in customers.</description>
     <pubDate>Wed, 03 Mar 2021 14:32:01 +0100</pubDate>
 <dc:creator>PrestaShop Team</dc:creator>
 <guid isPermaLink="false">https://www.prestashop.com/en/blog/customer-retention-trends</guid>
  </item>
  <item>
    <title>E-merchants have their say: 2021 Valentine&amp;#039;s Day Special</title>
    <link>https://www.prestashop.com/en/blog/valentines-2021-merchants</link>
    <description>A major event for people in love; Valentine&#039;s Day is one of the commercial highlights of the year and is even ranked in 3rd place in some business sectors.</description>
     <pubDate>Fri, 12 Feb 2021 17:31:19 +0100</pubDate>
 <dc:creator>PrestaShop Team</dc:creator>
 <guid isPermaLink="false">https://www.prestashop.com/en/blog/valentines-2021-merchants</guid>
  </item>
  <item>
    <title>Women in tech – Interview with our PrestaShop ambassadress Mary Montesinos </title>
    <link>https://www.prestashop.com/en/blog/ambassadress-mary-montesinos</link>
    <description>Sadly, there are very few women in the technology industry. We would love to see that change.</description>
     <pubDate>Fri, 05 Feb 2021 14:32:23 +0100</pubDate>
 <dc:creator>Océane Juste</dc:creator>
 <guid isPermaLink="false">https://www.prestashop.com/en/blog/ambassadress-mary-montesinos</guid>
  </item>
  <item>
    <title>Checking out in 2021: Customers want faster and simpler checkouts </title>
    <link>https://www.prestashop.com/en/blog/customers-faster-payment</link>
    <description>In a world where we are surrounded by things that help us to do everything faster: clean faster, cook faster, get to places faster, work faster, get deliveries faster, consumers have become accusto</description>
     <pubDate>Wed, 03 Feb 2021 14:30:37 +0100</pubDate>
 <dc:creator>Benjamin Thornton EN</dc:creator>
 <guid isPermaLink="false">https://www.prestashop.com/en/blog/customers-faster-payment</guid>
  </item>
  <item>
    <title>All you need to know about built-in modules </title>
    <link>https://www.prestashop.com/en/blog/built-in-modules</link>
    <description>Do you know that PrestaShop 1.7.7 comes with 88 built-in modules? That is 88 ways for merchants to start their online store and empower their business, directly from their back office.</description>
     <pubDate>Mon, 01 Feb 2021 18:18:49 +0100</pubDate>
 <dc:creator>Julie Varisellaz</dc:creator>
 <guid isPermaLink="false">https://www.prestashop.com/en/blog/built-in-modules</guid>
  </item>
  <item>
    <title>Top 5 linkbuilding strategies for online stores</title>
    <link>https://www.prestashop.com/en/blog/linkbuilding-strategies-ecommerce</link>
    <description>Are you looking for a great way to boost your online presence? If you have an online business, you have probably already noticed that the competition is huge.</description>
     <pubDate>Fri, 29 Jan 2021 16:29:17 +0100</pubDate>
 <dc:creator>bulldesign</dc:creator>
 <guid isPermaLink="false">https://www.prestashop.com/en/blog/linkbuilding-strategies-ecommerce</guid>
  </item>
  <item>
    <title>Logistics, optimize the process and boost your e-commerce</title>
    <link>https://www.prestashop.com/en/blog/logistics-optimize-process</link>
    <description>Imagine e-commerce as a big iceberg. The part above water, the tip of the iceberg, is the part we can see, like everything that reaches the end user.</description>
     <pubDate>Tue, 26 Jan 2021 14:37:43 +0100</pubDate>
 <dc:creator>luca mastroianni</dc:creator>
 <guid isPermaLink="false">https://www.prestashop.com/en/blog/logistics-optimize-process</guid>
  </item>
  <item>
    <title>VAT &amp;amp; Brexit, the changes for merchants</title>
    <link>https://www.prestashop.com/en/blog/brexit-vat</link>
    <description>On December 31, 2020, the United Kingdom definitively left the European Union, making Brexit official.</description>
     <pubDate>Wed, 20 Jan 2021 17:16:23 +0100</pubDate>
 <dc:creator>Tanguy Jacquet .</dc:creator>
 <guid isPermaLink="false">https://www.prestashop.com/en/blog/brexit-vat</guid>
  </item>
  </channel>
</rss>
";